{
    "openapi": "3.0.2",
    "info": {
        "title": "Api Patient",
        "version": "1.0.0",
        "description": "A sample API that uses a petstore as an example to demonstrate features\nin the OpenAPI 3.0 specification",
        "termsOfService": "http://swagger.io/terms/",
        "contact": {
            "name": "Swagger API Team",
            "url": "http://swagger.io",
            "email": "apiteam@swagger.io"
        },
        "license": {
            "name": "Apache 2.0",
            "url": "https://www.apache.org/licenses/LICENSE-2.0.html"
        }
    },
    "servers": [
        {
            "url": "http://petstore.swagger.io/api"
        }
    ],
    "paths": {
        "/patient": {
            "post": {
                "requestBody": {
                    "description": "Pet to add to the store",
                    "content": {
                        "application/json": {
                            "schema": {
                                "$ref": "#/components/schemas/NewPatient"
                            },
                            "examples": {
                                "tigresse": {
                                    "value": {
                                        "name": "Tigresse",
                                        "tag": "cat"
                                    }
                                }
                            }
                        }
                    },
                    "required": true
                },
                "responses": {
                    "default": {
                        "content": {
                            "application/json": {
                                "schema": {
                                    "$ref": "#/components/schemas/Error"
                                }
                            }
                        },
                        "description": "unexpected error"
                    },
                    "200": {
                        "content": {
                            "application/json": {
                                "schema": {
                                    "$ref": "#/components/schemas/Patient"
                                },
                                "examples": {
                                    "tigresse": {
                                        "value": {
                                            "id": 2,
                                            "name": "Tigresse",
                                            "tag": "cat"
                                        }
                                    }
                                }
                            }
                        },
                        "description": "pet response"
                    }
                },
                "operationId": "addPet",
                "description": "Add a new patient"
            }
        },
        "/patient/{id}": {
            "get": {
                "parameters": [
                    {
                        "examples": {
                            "zaza": {
                                "value": 1
                            }
                        },
                        "name": "id",
                        "description": "ID of patient to fetch",
                        "schema": {
                            "format": "int64",
                            "type": "integer"
                        },
                        "in": "path",
                        "required": true
                    }
                ],
                "responses": {
                    "default": {
                        "content": {
                            "application/json": {
                                "schema": {
                                    "$ref": "#/components/schemas/Error"
                                }
                            }
                        },
                        "description": "unexpected error"
                    },
                    "200": {
                        "content": {
                            "application/json": {
                                "schema": {
                                    "$ref": "#/components/schemas/Patient"
                                },
                                "examples": {
                                    "zaza": {
                                        "value": {
                                            "id": 1,
                                            "name": "Zaza",
                                            "tag": "cat"
                                        }
                                    }
                                }
                            }
                        },
                        "description": "pet response"
                    }
                },
                "operationId": "findPetById",
                "description": "Returns a user based on a single ID, if the user does not have\naccess to the pet"
            },
            "put": {
                "responses": {
                    "200": {
                        "content": {
                            "application/json": {
                                "schema": {
                                    "$ref": "#/components/schemas/Patient"
                                }
                            }
                        },
                        "description": "Return edited patient"
                    }
                },
                "operationId": "EditPatient",
                "description": "Update a patient"
            },
            "delete": {
                "parameters": [
                    {
                        "name": "id",
                        "description": "ID of patient to delete",
                        "schema": {
                            "format": "int64",
                            "type": "integer"
                        },
                        "in": "path",
                        "required": true
                    }
                ],
                "responses": {
                    "default": {
                        "content": {
                            "application/json": {
                                "schema": {
                                    "$ref": "#/components/schemas/Error"
                                }
                            }
                        },
                        "description": "unexpected error"
                    },
                    "204": {
                        "description": "pet deleted"
                    }
                },
                "operationId": "deletePet",
                "description": "Delete a patient by id"
            },
            "parameters": [
                {
                    "name": "id",
                    "description": "Patient identifier",
                    "schema": {
                        "type": "integer"
                    },
                    "in": "path",
                    "required": true
                }
            ]
        },
        "/patient/search": {
            "get": {
                "parameters": [
                    {
                        "name": "socialSecurityNumber",
                        "description": "",
                        "schema": {

                        },
                        "in": "query"
                    }
                ],
                "responses": {
                    "200": {
                        "content": {
                            "application/json": {
                                "schema": {
                                    "$ref": "#/components/schemas/Patient"
                                }
                            }
                        },
                        "description": "The patient with the social security number queryed"
                    }
                },
                "description": "Search patient by Social security number"
            }
        }
    },
    "components": {
        "schemas": {
            "Error": {
                "required": [
                    "code",
                    "message"
                ],
                "properties": {
                    "code": {
                        "format": "int32",
                        "type": "integer"
                    },
                    "message": {
                        "type": "string"
                    }
                }
            },
            "Patient": {
                "allOf": [
                    {
                        "$ref": "#/components/schemas/NewPatient"
                    },
                    {
                        "required": [
                            "id"
                        ],
                        "properties": {
                            "id": {
                                "format": "int64",
                                "type": "integer"
                            }
                        }
                    }
                ],
                "properties": {
                    "ID": {
                        "description": "",
                        "type": "integer",
                        "readOnly": true
                    }
                }
            },
            "NewPatient": {
                "required": [
                    "name",
                    "Sex"
                ],
                "properties": {
                    "name": {
                        "type": "string"
                    },
                    "birthdate": {
                        "format": "date-time",
                        "type": "string"
                    },
                    "Sex": {
                        "description": "",
                        "enum": [
                            "H",
                            "F",
                            "O"
                        ],
                        "type": "string"
                    },
                    "SocialSecurityNumber": {
                        "description": "",
                        "type": "integer"
                    }
                }
            }
        }
    }
}